Enter TRACE:inside rinit0 function                via     
   D0 |    1     2    3 
  ----|-----------------
     1|    1   999   999
dest 2|  999     3   999
     3|  999   999     7
done with rtinit0
inside rinit1 functiondone with rtinit1
inside rinit2 functiondone with rtinit0
inside rtinit3
rtinit3: 0.000000
done with rtinit3
inside rtupdate3
rtupdate3: 0.946640
 sender: 0
finished updating distance table
inside rtupdate0
rtupdate0: 0.992243
 sender: 1
                via     
   D0 |    1     2    3 
  ----|-----------------
     1|    1   999   999
dest 2|  999     3   999
     3|  999   999     7
finished updating distance table
                via     
   D0 |    1     2    3 
  ----|-----------------
     1|    1   999   999
dest 2|    2     3   999
     3|  999   999     7
inside rtupdate0
rtupdate0: 1.254826
 sender: 3
                via     
   D0 |    1     2    3 
  ----|-----------------
     1|    1   999   999
dest 2|    2     3   999
     3|  999   999     7
finished updating distance table
                via     
   D0 |    1     2    3 
  ----|-----------------
     1|    1   999   999
dest 2|    2     3     9
     3|  999   999     7
inside rtupdate0
rtupdate0: 1.510387
 sender: 3
                via     
   D0 |    1     2    3 
  ----|-----------------
     1|    1   999   999
dest 2|    2     3     9
     3|  999   999     7
finished updating distance table
                via     
   D0 |    1     2    3 
  ----|-----------------
     1|    1   999    15
dest 2|    2     3     9
     3|  999   999     7
inside rtupdate2
rtupdate2: 1.641910
 sender: 0
inside rtupdate1
rtupdate1: 1.870574
 sender: 0
inside rtupdate3
rtupdate3: 1.886999
 sender: 2
finished updating distance table
inside rtupdate2
rtupdate2: 2.165707
 sender: 1
finished updating distance table
inside rtupdate3
rtupdate3: 2.657502
 sender: 0
finished updating distance table
inside rtupdate3
rtupdate3: 2.763818
 sender: 0
inside rtupdate0
rtupdate0: 3.064424
 sender: 3
                via     
   D0 |    1     2    3 
  ----|-----------------
     1|    1   999    15
dest 2|    2     3     9
     3|  999   999     7
finished updating distance table
                via     
   D0 |    1     2    3 
  ----|-----------------
     1|    1   999   -1218517507
dest 2|    2     3   -4194295
     3|  999   999     7
inside rtupdate1
rtupdate1: 3.285052
 sender: 2
finished updating distance table
inside rtupdate3
rtupdate3: 3.713202
 sender: 0
inside rtupdate2
rtupdate2: 3.862626
 sender: 3
finished updating distance table
inside rtupdate2
rtupdate2: 4.089403
 sender: 3
finished updating distance table
inside rtupdate1
rtupdate1: 4.156448
 sender: 0
inside rtupdate1
rtupdate1: 4.222940
 sender: 0
inside rtupdate3
rtupdate3: 4.830902
 sender: 2
finished updating distance table
inside rtupdate0
rtupdate0: 4.846349
 sender: 2
                via     
   D0 |    1     2    3 
  ----|-----------------
     1|    1   999   -1218517507
dest 2|    2     3   -4194295
     3|  999   999     7
finished updating distance table
                via     
   D0 |    1     2    3 
  ----|-----------------
     1|    1     4   -1218517507
dest 2|    2     3   -4194295
     3|  999    10     7
inside rtupdate1
rtupdate1: 5.081475
 sender: 0
inside rtupdate0
rtupdate0: 5.230847
 sender: 3
                via     
   D0 |    1     2    3 
  ----|-----------------
     1|    1     4   -1218517507
dest 2|    2     3   -4194295
     3|  999    10     7
                via     
   D0 |    1     2    3 
  ----|-----------------
     1|    1     4   -1218517507
dest 2|    2     3   -4194295
     3|  999    10     7
inside rtupdate3
rtupdate3: 5.367103
 sender: 0
finished updating distance table
inside rtupdate1
rtupdate1: 5.793173
 sender: 2
finished updating distance table
inside rtupdate2
rtupdate2: 5.921522
 sender: 0
inside rtupdate0
rtupdate0: 6.247914
 sender: 1
                via     
   D0 |    1     2    3 
  ----|-----------------
     1|    1     4   -1218517507
dest 2|    2     3   -4194295
     3|  999    10     7
finished updating distance table
                via     
   D0 |    1     2    3 
  ----|-----------------
     1|    1     4   -1218517507
dest 2|    2     3   -4194295
     3|    6    10     7
inside rtupdate1
rtupdate1: 6.473974
 sender: 0
finished updating distance table
inside rtupdate1
rtupdate1: 6.652084
 sender: 2
inside rtupdate2
rtupdate2: 6.803851
 sender: 0
inside rtupdate3
rtupdate3: 7.330810
 sender: 2
inside rtupdate1
rtupdate1: 7.353992
 sender: 2
inside rtupdate0
rtupdate0: 7.414363
 sender: 2
                via     
   D0 |    1     2    3 
  ----|-----------------
     1|    1     4   -1218517507
dest 2|    2     3   -4194295
     3|    6    10     7
                via     
   D0 |    1     2    3 
  ----|-----------------
     1|    1     4   -1218517507
dest 2|    2     3   -4194295
     3|    6    10     7
inside rtupdate0
rtupdate0: 7.521170
 sender: 2
                via     
   D0 |    1     2    3 
  ----|-----------------
     1|    1     4   -1218517507
dest 2|    2     3   -4194295
     3|    6    10     7
                via     
   D0 |    1     2    3 
  ----|-----------------
     1|    1     4   -1218517507
dest 2|    2     3   -4194295
     3|    6    10     7
inside rtupdate1
rtupdate1: 7.716360
 sender: 0
inside rtupdate1
rtupdate1: 7.784446
 sender: 0
inside rtupdate0
rtupdate0: 8.485661
 sender: 3
                via     
   D0 |    1     2    3 
  ----|-----------------
     1|    1     4   -1218517507
dest 2|    2     3   -4194295
     3|    6    10     7
finished updating distance table
                via     
   D0 |    1     2    3 
  ----|-----------------
     1|    1     4   -1218517507
dest 2|    2     3   -4194295
     3|    6    10   -4194288
inside rtupdate2
rtupdate2: 8.676834
 sender: 0
inside rtupdate0
rtupdate0: 8.680148
 sender: 3
                via     
   D0 |    1     2    3 
  ----|-----------------
     1|    1     4   -1218517507
dest 2|    2     3   -4194295
     3|    6    10   -4194288
finished updating distance table
                via     
   D0 |    1     2    3 
  ----|-----------------
     1|    1     4   -1222711802
dest 2|    2     3   -8388590
     3|    6    10   -8388583
inside rtupdate0
rtupdate0: 8.693141
 sender: 1
                via     
   D0 |    1     2    3 
  ----|-----------------
     1|    1     4   -1222711802
dest 2|    2     3   -8388590
     3|    6    10   -8388583
                via     
   D0 |    1     2    3 
  ----|-----------------
     1|    1     4   -1222711802
dest 2|    2     3   -8388590
     3|    6    10   -8388583
inside rtupdate3
rtupdate3: 8.708995
 sender: 2
inside rtupdate1
rtupdate1: 8.871664
 sender: 0
finished updating distance table
inside rtupdate1
rtupdate1: 9.039593
 sender: 0
finished updating distance table
inside rtupdate0
rtupdate0: 9.710611
 sender: 1
                via     
   D0 |    1     2    3 
  ----|-----------------
     1|    1     4   -1222711802
dest 2|    2     3   -8388590
     3|    6    10   -8388583
finished updating distance table
                via     
   D0 |    1     2    3 
  ----|-----------------
     1|  -1218516507     4   -1222711802
dest 2|  -1222709803     3   -8388590
     3|  -1218516502    10   -8388583
inside rtupdate2
rtupdate2: 10.113037
 sender: 3
finished updating distance table
inside rtupdate1
rtupdate1: 10.302114
 sender: 0
finished updating distance table
inside rtupdate0
rtupdate0: 10.559340
 sender: 1
                via     
   D0 |    1     2    3 
  ----|-----------------
     1|  -1218516507     4   -1222711802
dest 2|  -1222709803     3   -8388590
     3|  -1218516502    10   -8388583
finished updating distance table
                via     
   D0 |    1     2    3 
  ----|-----------------
     1|  -1218516507     4   -1222711802
dest 2|  -1226904097     3   -8388590
     3|  -1226904090    10   -8388583
inside rtupdate3
rtupdate3: 10.655495
 sender: 0
inside rtupdate2
rtupdate2: 11.591825
 sender: 3
inside rtupdate3
rtupdate3: 11.605294
 sender: 0
finished updating distance table
inside rtupdate0
rtupdate0: 11.740981
 sender: 1
                via     
   D0 |    1     2    3 
  ----|-----------------
     1|  -1218516507     4   -1222711802
dest 2|  -1226904097     3   -8388590
     3|  -1226904090    10   -8388583
finished updating distance table
                via     
   D0 |    1     2    3 
  ----|-----------------
     1|  -1218516507     4   -1222711802
dest 2|  -1239486981     3   -8388590
     3|  -1239486974    10   -8388583
inside rtupdate2
rtupdate2: 11.895455
 sender: 0
finished updating distance table
inside rtupdate1
rtupdate1: 12.060066
 sender: 2
finished updating distance table
inside rtupdate2
rtupdate2: 12.069660
 sender: 1
finished updating distance table
inside rtupdate1
rtupdate1: 12.342859
 sender: 0
finished updating distance table
inside rtupdate1
rtupdate1: 12.522046
 sender: 0
inside rtupdate1
rtupdate1: 12.769319
 sender: 2
finished updating distance table
inside rtupdate3
rtupdate3: 12.771946
 sender: 0
finished updating distance table
inside rtupdate0
rtupdate0: 12.948669
 sender: 2
                via     
   D0 |    1     2    3 
  ----|-----------------
     1|  -1218516507     4   -1222711802
dest 2|  -1239486981     3   -8388590
     3|  -1239486974    10   -8388583
finished updating distance table
                via     
   D0 |    1     2    3 
  ----|-----------------
     1|  -1218516507   -1218517504   -1222711802
dest 2|  -1239486981   -4194292   -8388590
     3|  -1239486974   -4194285   -8388583
inside rtupdate2
rtupdate2: 13.144765
 sender: 3
finished updating distance table
inside rtupdate3
rtupdate3: 13.417386
 sender: 0
finished updating distance table
inside rtupdate1
rtupdate1: 13.603553
 sender: 2
finished updating distance table
inside rtupdate2
rtupdate2: 14.336032
 sender: 0
inside rtupdate0
rtupdate0: 14.813428
 sender: 1
                via     
   D0 |    1     2    3 
  ----|-----------------
     1|  -1218516507   -1218517504   -1222711802
dest 2|  -1239486981   -4194292   -8388590
     3|  -1239486974   -4194285   -8388583
finished updating distance table
                via     
   D0 |    1     2    3 
  ----|-----------------
     1|  -1218516507   -1218517504   -1222711802
dest 2|  -1239486981   -4194292   -8388590
     3|  -1239486974   -4194285   -8388583
inside rtupdate0
rtupdate0: 15.042721
 sender: 3
                via     
   D0 |    1     2    3 
  ----|-----------------
     1|  -1218516507   -1218517504   -1222711802
dest 2|  -1239486981   -4194292   -8388590
     3|  -1239486974   -4194285   -8388583
finished updating distance table
                via     
   D0 |    1     2    3 
  ----|-----------------
     1|  -1218516507   -1218517504   -1226906097
dest 2|  -1239486981   -4194292   -12582885
     3|  -1239486974   -4194285   -12582878
inside rtupdate3
rtupdate3: 15.246889
 sender: 0
finished updating distance table
inside rtupdate3
rtupdate3: 15.308547
 sender: 2
finished updating distance table
inside rtupdate1
rtupdate1: 15.320241
 sender: 0
inside rtupdate0
rtupdate0: 15.490952
 sender: 2
                via     
   D0 |    1     2    3 
  ----|-----------------
     1|  -1218516507   -1218517504   -1226906097
dest 2|  -1239486981   -4194292   -12582885
     3|  -1239486974   -4194285   -12582878
finished updating distance table
                via     
   D0 |    1     2    3 
  ----|-----------------
     1|  -1218516507   -1222711799   -1226906097
dest 2|  -1239486981   -8388587   -12582885
     3|  -1239486974   -8388580   -12582878
inside rtupdate3
rtupdate3: 15.525963
 sender: 0
finished updating distance table
inside rtupdate2
rtupdate2: 16.297802
 sender: 3
finished updating distance table
inside rtupdate0
rtupdate0: 16.755695
 sender: 1
                via     
   D0 |    1     2    3 
  ----|-----------------
     1|  -1218516507   -1222711799   -1226906097
dest 2|  -1239486981   -8388587   -12582885
     3|  -1239486974   -8388580   -12582878
                via     
   D0 |    1     2    3 
  ----|-----------------
     1|  -1218516507   -1222711799   -1226906097
dest 2|  -1239486981   -8388587   -12582885
     3|  -1239486974   -8388580   -12582878
inside rtupdate1
rtupdate1: 16.866432
 sender: 2
finished updating distance table
inside rtupdate3
rtupdate3: 17.024395
 sender: 0
inside rtupdate0
rtupdate0: 17.085112
 sender: 2
                via     
   D0 |    1     2    3 
  ----|-----------------
     1|  -1218516507   -1222711799   -1226906097
dest 2|  -1239486981   -8388587   -12582885
     3|  -1239486974   -8388580   -12582878
finished updating distance table
                via     
   D0 |    1     2    3 
  ----|-----------------
     1|  -1218516507   -1226906094   -1226906097
dest 2|  -1239486981   -12582882   -12582885
     3|  -1239486974   -12582876   -12582878
inside rtupdate2
rtupdate2: 17.374619
 sender: 1
inside rtupdate0
rtupdate0: 18.087275
 sender: 1
                via     
   D0 |    1     2    3 
  ----|-----------------
     1|  -1218516507   -1226906094   -1226906097
dest 2|  -1239486981   -12582882   -12582885
     3|  -1239486974   -12582876   -12582878
                via     
   D0 |    1     2    3 
  ----|-----------------
     1|  -1218516507   -1226906094   -1226906097
dest 2|  -1239486981   -12582882   -12582885
     3|  -1239486974   -12582876   -12582878
inside rtupdate3
rtupdate3: 18.138206
 sender: 2
finished updating distance table
inside rtupdate2
rtupdate2: 18.246145
 sender: 0
inside rtupdate2
rtupdate2: 18.295097
 sender: 1
finished updating distance table
inside rtupdate1
rtupdate1: 18.832649
 sender: 0
inside rtupdate0
rtupdate0: 19.062132
 sender: 1
                via     
   D0 |    1     2    3 
  ----|-----------------
     1|  -1218516507   -1226906094   -1226906097
dest 2|  -1239486981   -12582882   -12582885
     3|  -1239486974   -12582876   -12582878
                via     
   D0 |    1     2    3 
  ----|-----------------
     1|  -1218516507   -1226906094   -1226906097
dest 2|  -1239486981   -12582882   -12582885
     3|  -1239486974   -12582876   -12582878
inside rtupdate3
rtupdate3: 19.132118
 sender: 2
finished updating distance table
inside rtupdate1
rtupdate1: 19.220480
 sender: 0
inside rtupdate1
rtupdate1: 19.733152
 sender: 0
inside rtupdate1
rtupdate1: 19.904043
 sender: 2
finished updating distance table
inside rtupdate2
rtupdate2: 20.024265
 sender: 0
finished updating distance table
inside rtupdate2
rtupdate2: 20.137932
 sender: 0
finished updating distance table
inside rtupdate2
rtupdate2: 20.555229
 sender: 1
finished updating distance table
inside rtupdate0
rtupdate0: 20.587008
 sender: 3
                via     
   D0 |    1     2    3 
  ----|-----------------
     1|  -1218516507   -1226906094   -1226906097
dest 2|  -1239486981   -12582882   -12582885
     3|  -1239486974   -12582876   -12582878
finished updating distance table
                via     
   D0 |    1     2    3 
  ----|-----------------
     1|  -1218516507   -1226906094   -1235294672
dest 2|  -1239486981   -12582882   -20971460
     3|  -1239486974   -12582876   -20971453
inside rtupdate3
rtupdate3: 20.648365
 sender: 0
inside rtupdate1
rtupdate1: 21.149641
 sender: 0
inside rtupdate1
rtupdate1: 21.279390
 sender: 2
finished updating distance table
inside rtupdate0
rtupdate0: 22.164913
 sender: 2
                via     
   D0 |    1     2    3 
  ----|-----------------
     1|  -1218516507   -1226906094   -1235294672
dest 2|  -1239486981   -12582882   -20971460
     3|  -1239486974   -12582876   -20971453
finished updating distance table
                via     
   D0 |    1     2    3 
  ----|-----------------
     1|  -1218516507   -1231100389   -1235294672
dest 2|  -1239486981   -16777177   -20971460
     3|  -1239486974   -20971465   -20971453
inside rtupdate2
rtupdate2: 22.421024
 sender: 1
finished updating distance table
inside rtupdate3
rtupdate3: 22.522696
 sender: 2
finished updating distance table
inside rtupdate0
rtupdate0: 22.918793
 sender: 3
                via     
   D0 |    1     2    3 
  ----|-----------------
     1|  -1218516507   -1231100389   -1235294672
dest 2|  -1239486981   -16777177   -20971460
     3|  -1239486974   -20971465   -20971453
finished updating distance table
                via     
   D0 |    1     2    3 
  ----|-----------------
     1|  -1218516507   -1231100389   -1256266131
dest 2|  -1239486981   -16777177   -41942919
     3|  -1239486974   -20971465   -41942912
inside rtupdate1
rtupdate1: 23.044666
 sender: 2
finished updating distance table
inside rtupdate0
rtupdate0: 23.522846
 sender: 1
                via     
   D0 |    1     2    3 
  ----|-----------------
     1|  -1218516507   -1231100389   -1256266131
dest 2|  -1239486981   -16777177   -41942919
     3|  -1239486974   -20971465   -41942912
                via     
   D0 |    1     2    3 
  ----|-----------------
     1|  -1218516507   -1231100389   -1256266131
dest 2|  -1239486981   -16777177   -41942919
     3|  -1239486974   -20971465   -41942912
inside rtupdate2
rtupdate2: 23.780775
 sender: 0
finished updating distance table
inside rtupdate3
rtupdate3: 23.788662
 sender: 0
inside rtupdate1
rtupdate1: 23.810598
 sender: 2
finished updating distance table
inside rtupdate1
rtupdate1: 23.824459
 sender: 2
inside rtupdate1
rtupdate1: 24.350994
 sender: 0
inside rtupdate2
rtupdate2: 24.806923
 sender: 1
finished updating distance table
inside rtupdate2
rtupdate2: 25.034050
 sender: 0
finished updating distance table
inside rtupdate3
rtupdate3: 25.296913
 sender: 0
inside rtupdate0
rtupdate0: 25.409109
 sender: 3
                via     
   D0 |    1     2    3 
  ----|-----------------
     1|  -1218516507   -1231100389   -1256266131
dest 2|  -1239486981   -16777177   -41942919
     3|  -1239486974   -20971465   -41942912
finished updating distance table
                via     
   D0 |    1     2    3 
  ----|-----------------
     1|  -1218516507   -1231100389   -1285626179
dest 2|  -1239486981   -16777177   -1285624180
     3|  -1239486974   -20971465   -1281430879
inside rtupdate2
rtupdate2: 25.455664
 sender: 3
finished updating distance table
inside rtupdate2
rtupdate2: 25.697948
 sender: 0
inside rtupdate0
rtupdate0: 26.031172
 sender: 3
                via     
   D0 |    1     2    3 
  ----|-----------------
     1|  -1218516507   -1231100389   -1285626179
dest 2|  -1239486981   -16777177   -1285624180
     3|  -1239486974   -20971465   -1281430879
finished updating distance table
                via     
   D0 |    1     2    3 
  ----|-----------------
     1|  -1218516507   -1231100389   -1285626179
dest 2|  -1239486981   -16777177   -1285624180
     3|  -1239486974   -20971465   -1281430879
inside rtupdate1
rtupdate1: 26.134254
 sender: 0
inside rtupdate3
rtupdate3: 26.465641
 sender: 0
inside rtupdate2
rtupdate2: 26.860714
 sender: 1
inside rtupdate3
rtupdate3: 27.079803
 sender: 2
finished updating distance table
inside rtupdate3
rtupdate3: 27.335222
 sender: 0
inside rtupdate0
rtupdate0: 27.537756
 sender: 3
                via     
   D0 |    1     2    3 
  ----|-----------------
     1|  -1218516507   -1231100389   -1285626179
dest 2|  -1239486981   -16777177   -1285624180
     3|  -1239486974   -20971465   -1281430879
                via     
   D0 |    1     2    3 
  ----|-----------------
     1|  -1218516507   -1231100389   -1285626179
dest 2|  -1239486981   -16777177   -1285624180
     3|  -1239486974   -20971465   -1281430879
inside rtupdate3
rtupdate3: 27.674974
 sender: 2
finished updating distance table
inside rtupdate1
rtupdate1: 27.939297
 sender: 2
inside rtupdate2
rtupdate2: 27.968292
 sender: 1
inside rtupdate3
rtupdate3: 28.016157
 sender: 2
finished updating distance table
inside rtupdate0
rtupdate0: 28.626858
 sender: 2
                via     
   D0 |    1     2    3 
  ----|-----------------
     1|  -1218516507   -1231100389   -1285626179
dest 2|  -1239486981   -16777177   -1285624180
     3|  -1239486974   -20971465   -1281430879
finished updating distance table
                via     
   D0 |    1     2    3 
  ----|-----------------
     1|  -1218516507   -1239488979   -1285626179
dest 2|  -1239486981   -25165767   -1285624180
     3|  -1239486974   -33554350   -1281430879
inside rtupdate0
rtupdate0: 28.648642
 sender: 1
                via     
   D0 |    1     2    3 
  ----|-----------------
     1|  -1218516507   -1239488979   -1285626179
dest 2|  -1239486981   -25165767   -1285624180
     3|  -1239486974   -33554350   -1281430879
                via     
   D0 |    1     2    3 
  ----|-----------------
     1|  -1218516507   -1239488979   -1285626179
dest 2|  -1239486981   -25165767   -1285624180
     3|  -1239486974   -33554350   -1281430879
inside rtupdate1
rtupdate1: 29.406410
 sender: 0
inside rtupdate0
rtupdate0: 29.410488
 sender: 3
                via     
   D0 |    1     2    3 
  ----|-----------------
     1|  -1218516507   -1239488979   -1285626179
dest 2|  -1239486981   -25165767   -1285624180
     3|  -1239486974   -33554350   -1281430879
                via     
   D0 |    1     2    3 
  ----|-----------------
     1|  -1218516507   -1239488979   -1285626179
dest 2|  -1239486981   -25165767   -1285624180
     3|  -1239486974   -33554350   -1281430879
inside rtupdate0
rtupdate0: 29.449032
 sender: 2
                via     
   D0 |    1     2    3 
  ----|-----------------
     1|  -1218516507   -1239488979   -1285626179
dest 2|  -1239486981   -25165767   -1285624180
     3|  -1239486974   -33554350   -1281430879
finished updating distance table
                via     
   D0 |    1     2    3 
  ----|-----------------
     1|  -1218516507   -1247877569   -1285626179
dest 2|  -1239486981   -1247875570   -1285624180
     3|  -1239486974   -33554350   -1281430879
inside rtupdate2
rtupdate2: 29.819185
 sender: 1
inside rtupdate3
rtupdate3: 29.865589
 sender: 2
finished updating distance table
inside rtupdate2
rtupdate2: 29.975681
 sender: 3
finished updating distance table
inside rtupdate2
rtupdate2: 30.092060
 sender: 0
inside rtupdate3
rtupdate3: 30.337086
 sender: 2
inside rtupdate1
rtupdate1: 30.446735
 sender: 2
inside rtupdate1
rtupdate1: 30.729853
 sender: 2
inside rtupdate1
rtupdate1: 30.862404
 sender: 2
inside rtupdate0
rtupdate0: 31.317871
 sender: 3
                via     
   D0 |    1     2    3 
  ----|-----------------
     1|  -1218516507   -1247877569   -1285626179
dest 2|  -1239486981   -1247875570   -1285624180
     3|  -1239486974   -33554350   -1281430879
                via     
   D0 |    1     2    3 
  ----|-----------------
     1|  -1218516507   -1247877569   -1285626179
dest 2|  -1239486981   -1247875570   -1285624180
     3|  -1239486974   -33554350   -1281430879
inside rtupdate1
rtupdate1: 31.466452
 sender: 0
inside rtupdate2
rtupdate2: 31.831150
 sender: 3
finished updating distance table
inside rtupdate3
rtupdate3: 31.949455
 sender: 0
inside rtupdate1
rtupdate1: 32.326824
 sender: 2
inside rtupdate0
rtupdate0: 32.393085
 sender: 1
                via     
   D0 |    1     2    3 
  ----|-----------------
     1|  -1218516507   -1247877569   -1285626179
dest 2|  -1239486981   -1247875570   -1285624180
     3|  -1239486974   -33554350   -1281430879
                via     
   D0 |    1     2    3 
  ----|-----------------
     1|  -1218516507   -1247877569   -1285626179
dest 2|  -1239486981   -1247875570   -1285624180
     3|  -1239486974   -33554350   -1281430879
inside rtupdate0
rtupdate0: 32.615971
 sender: 2
                via     
   D0 |    1     2    3 
  ----|-----------------
     1|  -1218516507   -1247877569   -1285626179
dest 2|  -1239486981   -1247875570   -1285624180
     3|  -1239486974   -33554350   -1281430879
finished updating distance table
                via     
   D0 |    1     2    3 
  ----|-----------------
     1|  -1218516507   -1247877569   -1285626179
dest 2|  -1239486981   -1247875570   -1285624180
     3|  -1239486974   -33554350   -1281430879
inside rtupdate0
rtupdate0: 32.725117
 sender: 2
                via     
   D0 |    1     2    3 
  ----|-----------------
     1|  -1218516507   -1247877569   -1285626179
dest 2|  -1239486981   -1247875570   -1285624180
     3|  -1239486974   -33554350   -1281430879
finished updating distance table
                via     
   D0 |    1     2    3 
  ----|-----------------
     1|  -1218516507   -1247877569   -1285626179
dest 2|  -1239486981   -1247875570   -1285624180
     3|  -1239486974   -33554350   -1281430879
inside rtupdate2
rtupdate2: 32.867825
 sender: 1
inside rtupdate0
rtupdate0: 33.168758
 sender: 2
                via     
   D0 |    1     2    3 
  ----|-----------------
     1|  -1218516507   -1247877569   -1285626179
dest 2|  -1239486981   -1247875570   -1285624180
     3|  -1239486974   -33554350   -1281430879
                via     
   D0 |    1     2    3 
  ----|-----------------
     1|  -1218516507   -1247877569   -1285626179
dest 2|  -1239486981   -1247875570   -1285624180
     3|  -1239486974   -33554350   -1281430879
inside rtupdate0
rtupdate0: 33.201878
 sender: 1
                via     
   D0 |    1     2    3 
  ----|-----------------
     1|  -1218516507   -1247877569   -1285626179
dest 2|  -1239486981   -1247875570   -1285624180
     3|  -1239486974   -33554350   -1281430879
                via     
   D0 |    1     2    3 
  ----|-----------------
     1|  -1218516507   -1247877569   -1285626179
dest 2|  -1239486981   -1247875570   -1285624180
     3|  -1239486974   -33554350   -1281430879
inside rtupdate3
rtupdate3: 33.409126
 sender: 0
inside rtupdate1
rtupdate1: 33.557766
 sender: 0
inside rtupdate2
rtupdate2: 33.689293
 sender: 0
inside rtupdate0
rtupdate0: 33.907146
 sender: 2
                via     
   D0 |    1     2    3 
  ----|-----------------
     1|  -1218516507   -1247877569   -1285626179
dest 2|  -1239486981   -1247875570   -1285624180
     3|  -1239486974   -33554350   -1281430879
                via     
   D0 |    1     2    3 
  ----|-----------------
     1|  -1218516507   -1247877569   -1285626179
dest 2|  -1239486981   -1247875570   -1285624180
     3|  -1239486974   -33554350   -1281430879
inside rtupdate3
rtupdate3: 34.195446
 sender: 2
inside rtupdate1
rtupdate1: 34.420757
 sender: 0
inside rtupdate2
rtupdate2: 34.689949
 sender: 0
inside rtupdate1
rtupdate1: 35.090614
 sender: 0
inside rtupdate3
rtupdate3: 35.366932
 sender: 0
inside rtupdate0
rtupdate0: 35.450661
 sender: 3
                via     
   D0 |    1     2    3 
  ----|-----------------
     1|  -1218516507   -1247877569   -1285626179
dest 2|  -1239486981   -1247875570   -1285624180
     3|  -1239486974   -33554350   -1281430879
                via     
   D0 |    1     2    3 
  ----|-----------------
     1|  -1218516507   -1247877569   -1285626179
dest 2|  -1239486981   -1247875570   -1285624180
     3|  -1239486974   -33554350   -1281430879
inside rtupdate2
rtupdate2: 35.937878
 sender: 3
finished updating distance table
inside rtupdate3
rtupdate3: 36.117603
 sender: 2
inside rtupdate2
rtupdate2: 36.272369
 sender: 3
finished updating distance table
inside rtupdate1
rtupdate1: 36.508533
 sender: 2
inside rtupdate1
rtupdate1: 37.024719
 sender: 2
inside rtupdate3
rtupdate3: 37.215870
 sender: 2
inside rtupdate0
rtupdate0: 37.257526
 sender: 1
                via     
   D0 |    1     2    3 
  ----|-----------------
     1|  -1218516507   -1247877569   -1285626179
dest 2|  -1239486981   -1247875570   -1285624180
     3|  -1239486974   -33554350   -1281430879
                via     
   D0 |    1     2    3 
  ----|-----------------
     1|  -1218516507   -1247877569   -1285626179
dest 2|  -1239486981   -1247875570   -1285624180
     3|  -1239486974   -33554350   -1281430879
inside rtupdate2
rtupdate2: 38.057198
 sender: 0
inside rtupdate2
rtupdate2: 38.171444
 sender: 3
inside rtupdate2
rtupdate2: 38.310482
 sender: 1
inside rtupdate3
rtupdate3: 38.423283
 sender: 2
inside rtupdate1
rtupdate1: 38.748318
 sender: 0
inside rtupdate0
rtupdate0: 39.199463
 sender: 2
                via     
   D0 |    1     2    3 
  ----|-----------------
     1|  -1218516507   -1247877569   -1285626179
dest 2|  -1239486981   -1247875570   -1285624180
     3|  -1239486974   -33554350   -1281430879
                via     
   D0 |    1     2    3 
  ----|-----------------
     1|  -1218516507   -1247877569   -1285626179
dest 2|  -1239486981   -1247875570   -1285624180
     3|  -1239486974   -33554350   -1281430879
inside rtupdate2
rtupdate2: 40.048954
 sender: 0
inside rtupdate0
rtupdate0: 40.074841
 sender: 1
                via     
   D0 |    1     2    3 
  ----|-----------------
     1|  -1218516507   -1247877569   -1285626179
dest 2|  -1239486981   -1247875570   -1285624180
     3|  -1239486974   -33554350   -1281430879
                via     
   D0 |    1     2    3 
  ----|-----------------
     1|  -1218516507   -1247877569   -1285626179
dest 2|  -1239486981   -1247875570   -1285624180
     3|  -1239486974   -33554350   -1281430879
inside rtupdate1
rtupdate1: 40.122971
 sender: 0
inside rtupdate3
rtupdate3: 40.245556
 sender: 0
inside rtupdate1
rtupdate1: 40.761047
 sender: 2
inside rtupdate2
rtupdate2: 41.333618
 sender: 3
inside rtupdate0
rtupdate0: 41.356720
 sender: 2
                via     
   D0 |    1     2    3 
  ----|-----------------
     1|  -1218516507   -1247877569   -1285626179
dest 2|  -1239486981   -1247875570   -1285624180
     3|  -1239486974   -33554350   -1281430879
                via     
   D0 |    1     2    3 
  ----|-----------------
     1|  -1218516507   -1247877569   -1285626179
dest 2|  -1239486981   -1247875570   -1285624180
     3|  -1239486974   -33554350   -1281430879
inside rtupdate3
rtupdate3: 41.508980
 sender: 2
inside rtupdate3
rtupdate3: 42.011654
 sender: 0
inside rtupdate2
rtupdate2: 42.277424
 sender: 3
inside rtupdate1
rtupdate1: 42.445808
 sender: 2
inside rtupdate0
rtupdate0: 42.652462
 sender: 2
                via     
   D0 |    1     2    3 
  ----|-----------------
     1|  -1218516507   -1247877569   -1285626179
dest 2|  -1239486981   -1247875570   -1285624180
     3|  -1239486974   -33554350   -1281430879
                via     
   D0 |    1     2    3 
  ----|-----------------
     1|  -1218516507   -1247877569   -1285626179
dest 2|  -1239486981   -1247875570   -1285624180
     3|  -1239486974   -33554350   -1281430879
inside rtupdate3
rtupdate3: 43.513870
 sender: 0
inside rtupdate3
rtupdate3: 44.056412
 sender: 0
inside rtupdate2
rtupdate2: 44.112480
 sender: 1
inside rtupdate2
rtupdate2: 44.368805
 sender: 0
inside rtupdate0
rtupdate0: 44.507854
 sender: 2
                via     
   D0 |    1     2    3 
  ----|-----------------
     1|  -1218516507   -1247877569   -1285626179
dest 2|  -1239486981   -1247875570   -1285624180
     3|  -1239486974   -33554350   -1281430879
                via     
   D0 |    1     2    3 
  ----|-----------------
     1|  -1218516507   -1247877569   -1285626179
dest 2|  -1239486981   -1247875570   -1285624180
     3|  -1239486974   -33554350   -1281430879
inside rtupdate2
rtupdate2: 44.739372
 sender: 1
inside rtupdate0
rtupdate0: 45.198463
 sender: 3
                via     
   D0 |    1     2    3 
  ----|-----------------
     1|  -1218516507   -1247877569   -1285626179
dest 2|  -1239486981   -1247875570   -1285624180
     3|  -1239486974   -33554350   -1281430879
                via     
   D0 |    1     2    3 
  ----|-----------------
     1|  -1218516507   -1247877569   -1285626179
dest 2|  -1239486981   -1247875570   -1285624180
     3|  -1239486974   -33554350   -1281430879
inside rtupdate2
rtupdate2: 45.386654
 sender: 0
inside rtupdate3
rtupdate3: 45.992886
 sender: 2
inside rtupdate2
rtupdate2: 46.428391
 sender: 3
inside rtupdate0
rtupdate0: 46.487457
 sender: 3
                via     
   D0 |    1     2    3 
  ----|-----------------
     1|  -1218516507   -1247877569   -1285626179
dest 2|  -1239486981   -1247875570   -1285624180
     3|  -1239486974   -33554350   -1281430879
                via     
   D0 |    1     2    3 
  ----|-----------------
     1|  -1218516507   -1247877569   -1285626179
dest 2|  -1239486981   -1247875570   -1285624180
     3|  -1239486974   -33554350   -1281430879
inside rtupdate0
rtupdate0: 46.882698
 sender: 3
                via     
   D0 |    1     2    3 
  ----|-----------------
     1|  -1218516507   -1247877569   -1285626179
dest 2|  -1239486981   -1247875570   -1285624180
     3|  -1239486974   -33554350   -1281430879
                via     
   D0 |    1     2    3 
  ----|-----------------
     1|  -1218516507   -1247877569   -1285626179
dest 2|  -1239486981   -1247875570   -1285624180
     3|  -1239486974   -33554350   -1281430879
inside rtupdate3
rtupdate3: 47.211239
 sender: 2
inside rtupdate2
rtupdate2: 47.256569
 sender: 0
inside rtupdate2
rtupdate2: 48.123287
 sender: 1
inside rtupdate3
rtupdate3: 48.263027
 sender: 0
inside rtupdate0
rtupdate0: 48.303226
 sender: 3
                via     
   D0 |    1     2    3 
  ----|-----------------
     1|  -1218516507   -1247877569   -1285626179
dest 2|  -1239486981   -1247875570   -1285624180
     3|  -1239486974   -33554350   -1281430879
                via     
   D0 |    1     2    3 
  ----|-----------------
     1|  -1218516507   -1247877569   -1285626179
dest 2|  -1239486981   -1247875570   -1285624180
     3|  -1239486974   -33554350   -1281430879
inside rtupdate0
rtupdate0: 48.618420
 sender: 2
                via     
   D0 |    1     2    3 
  ----|-----------------
     1|  -1218516507   -1247877569   -1285626179
dest 2|  -1239486981   -1247875570   -1285624180
     3|  -1239486974   -33554350   -1281430879
                via     
   D0 |    1     2    3 
  ----|-----------------
     1|  -1218516507   -1247877569   -1285626179
dest 2|  -1239486981   -1247875570   -1285624180
     3|  -1239486974   -33554350   -1281430879
inside rtupdate2
rtupdate2: 48.639233
 sender: 1
inside rtupdate0
rtupdate0: 49.066162
 sender: 2
                via     
   D0 |    1     2    3 
  ----|-----------------
     1|  -1218516507   -1247877569   -1285626179
dest 2|  -1239486981   -1247875570   -1285624180
     3|  -1239486974   -33554350   -1281430879
                via     
   D0 |    1     2    3 
  ----|-----------------
     1|  -1218516507   -1247877569   -1285626179
dest 2|  -1239486981   -1247875570   -1285624180
     3|  -1239486974   -33554350   -1281430879
inside rtupdate3
rtupdate3: 50.175190
 sender: 0
inside rtupdate0
rtupdate0: 50.209263
 sender: 2
                via     
   D0 |    1     2    3 
  ----|-----------------
     1|  -1218516507   -1247877569   -1285626179
dest 2|  -1239486981   -1247875570   -1285624180
     3|  -1239486974   -33554350   -1281430879
                via     
   D0 |    1     2    3 
  ----|-----------------
     1|  -1218516507   -1247877569   -1285626179
dest 2|  -1239486981   -1247875570   -1285624180
     3|  -1239486974   -33554350   -1281430879
inside rtupdate2
rtupdate2: 50.290287
 sender: 0
inside rtupdate3
rtupdate3: 50.366951
 sender: 2
inside rtupdate3
rtupdate3: 51.061386
 sender: 2
inside rtupdate2
rtupdate2: 51.336971
 sender: 0
inside rtupdate0
rtupdate0: 52.042976
 sender: 2
                via     
   D0 |    1     2    3 
  ----|-----------------
     1|  -1218516507   -1247877569   -1285626179
dest 2|  -1239486981   -1247875570   -1285624180
     3|  -1239486974   -33554350   -1281430879
                via     
   D0 |    1     2    3 
  ----|-----------------
     1|  -1218516507   -1247877569   -1285626179
dest 2|  -1239486981   -1247875570   -1285624180
     3|  -1239486974   -33554350   -1281430879
inside rtupdate2
rtupdate2: 52.188698
 sender: 3
inside rtupdate2
rtupdate2: 53.584576
 sender: 3
inside rtupdate2
rtupdate2: 53.915306
 sender: 3
inside rtupdate2
rtupdate2: 55.138725
 sender: 0
inside rtupdate2
rtupdate2: 55.228863
 sender: 0
inside rtupdate2
rtupdate2: 55.260937
 sender: 3
inside rtupdate2
rtupdate2: 55.775032
 sender: 0
inside rtupdate2
rtupdate2: 56.111401
 sender: 0

Simulator terminated at t=20000.000000, no packets in medium
