y
$a3$
y
$ba+c2*d3-fg/h6$
y
$ba+c4*de-f8/h9$
y
$(x2)y3$
y
$(((r1+er-fs)*j5))*(a2)$
y
$(t0+wk)*bn)/c1$
y
$(((ui+ej*(vk+ci))/pt)$
y
$+g5$
y
$a1*(mb/(c2+kd/e3)-fw)+yq/(((rw*y4-r5*tb)/y6+ug))$
y
$g0*(hs+(df-*ft))$
y
$(tg+(hy-j7))/uk)*ri+(eo/wp$
y
$(tg+(hy-j9))/uk)ri$
y
$wm-(tn*bu)+$
y
$wm-tn(*bu)$
y
$wm-)tn*bu($
n

