1 1  0 0 0 1 1 0 ...  0 1 1

0 1  1 0 0 0 1 10 ... 1 1 0

lower number is larger because first number( called 2's complement) is 0, which means positive

but negative numbers will be sorted the wrong way because the top number is 'technicall' larger when viewd as a  normal number , not with 2's comlement

 lst |---------------------------------------------|

buff |---------------------------------------------|

ROUND 0
      counter
      map
      move   lst  -> buff

ROUND 1
      counter
      map
      move   lst  -> buff

round 2
      counter
      map
      move   buff  -> lst

.............................................................................
(after last round preform correction step
correct lst - > buff y

END RADIX SORT

~~~~~~~~~~~~~~~~~~~~~~~~~~~~~~~~~~~~~~~~~~~~~~~~~~~~~~~~~~~~~~~~~~~~~~~~~~~~~~~~~~~~~~~~~~~~~~~~~~~~~~~~~~~~~~~~~~~~~~~~~~~~~~~~~~~~~~~~~~~~~~~~~~~~~~~~~~~~~~~~~~~~~~~~~
float f;
f = 0.875 (to get address &f)

*(long *)(&f)

try to print 
  printf( f, &f,(long *)(&f),*(long *)(&f)
